Tarea1-FSM/simulation/modelsim/mantenimiento_fsm.vcd
$date
	Fri Sep 13 17:17:41 2024
$end
$version
	ModelSim Version 2020.1
$end
$timescale
	1ps
$end

$scope module tb_mantenimiento_fsm $end
$var reg 1 ! clk $end
$var reg 1 " reset $end
$var reg 1 # mantenimiento $end
$var reg 8 $ estado [7:0] $end
$var reg 8 % num_mantenimientos [7:0] $end
$var reg 1 & terminado $end

$scope module uut $end
$var wire 1 ' clk $end
$var wire 1 ( reset $end
$var wire 1 ) mantenimiento $end
$var reg 8 * estado [7:0] $end
$var reg 8 + num_mantenimientos [7:0] $end
$var reg 1 , terminado $end
$var reg 2 - estado_actual [1:0] $end
$var reg 2 . estado_siguiente [1:0] $end
$var reg 8 / contador [7:0] $end
$var reg 8 0 contador_mantenimiento [7:0] $end
$upscope $end
$upscope $end
$enddefinitions $end
#0
$dumpvars
0!
1"
0#
bx $
b0 %
0&
bx *
b0 +
0,
b0 -
b0 .
b0 /
b0 0
0'
1(
0)
$end
#5
1!
1'
#10
0"
0!
0(
0'
#15
1!
1'
#20
1#
0!
1)
0'
b1 .
#25
1!
1'
b1 -
#30
0#
0!
0)
0'
b0 .
#35
1!
1'
b0 -
b1 /
#40
0!
0'
#45
1!
1'
b0 /
#50
0!
0'
#55
1!
1'
#60
0!
0'
#65
1!
1'
#70
0!
0'
#75
1!
1'
#80
0!
0'
#85
1!
1'
#90
0!
0'
#95
1!
1'
#100
0!
0'
#105
1!
1'
#110
0!
0'
#115
1!
1'
#120
0!
0'
#125
1!
1'
#130
0!
0'
#135
1!
1'
#140
1#
0!
1)
0'
b1 .
#145
1!
1'
b1 -
#150
0#
0!
0)
0'
b0 .
#155
1!
1'
b0 -
b1 /
#160
0!
0'
#165
1!
1'
b0 /
#170
0!
0'
#175
1!
1'
#180
0!
0'
#185
1!
1'
#190
0!
0'
#195
1!
1'
#200
0!
0'
#205
1!
1'
#210
0!
0'
#215
1!
1'
#220
0!
0'
#225
1!
1'
#230
0!
0'
#235
1!
1'
#240
0!
0'
#245
1!
1'
#250
0!
0'
#255
1!
1'
#260
0!
0'
#265
1!
1'
#270
0!
0'
#275
1!
1'
#280
0!
0'
#285
1!
1'
#290
0!
0'
#295
1!
1'
#300
0!
0'
#305
1!
1'
#310
0!
0'
#315
1!
1'
#320
0!
0'
#325
1!
1'
#330
0!
0'
#335
1!
1'
#340
0!
0'
#345
1!
1'
#350
0!
0'
#355
1!
1'
#360
1#
0!
1)
0'
b1 .
#365
1!
1'
b1 -
#370
0!
0'
#375
1!
1'
b1 /
b1 0
#380
0!
0'
#385
1!
1'
b10 /
b10 0
b1 +
b1 %
#390
0!
0'
#395
1!
1'
b11 /
b11 0
b10 +
b10 %
#400
0!
0'
#405
1!
1'
b100 /
b100 0
b11 +
b11 %
#410
0!
0'
#415
1!
1'
b101 /
b101 0
b100 +
b100 %
#420
0!
0'
#425
1!
1'
b110 /
b110 0
b101 +
b101 %
#430
0!
0'
#435
1!
1'
b111 /
b111 0
b110 +
b110 %
#440
0!
0'
#445
1!
1'
b1000 /
b1000 0
b111 +
b111 %
#450
0!
0'
#455
1!
1'
b1001 /
b1001 0
b1000 +
b1000 %
#460
0!
0'
#465
1!
1'
b1010 /
b1010 0
b1001 +
b1001 %
#470
0!
0'
#475
1!
1'
b1011 /
b1011 0
b1010 +
b1010 %
#480
0!
0'
#485
1!
1'
b1100 /
b1100 0
b1011 +
b1011 %
#490
0!
0'
#495
1!
1'
b1101 /
b1101 0
b1100 +
b1100 %
#500
0!
0'
#505
1!
1'
b1110 /
b1110 0
b1101 +
b1101 %
#510
0!
0'
#515
1!
1'
b1111 /
b1111 0
b1110 +
b1110 %
#520
0!
0'
#525
1!
1'
b10000 /
b10000 0
b1111 +
b1111 %
#530
0!
0'
#535
1!
1'
b10001 /
b10001 0
b10000 +
b10000 %
#540
0!
0'
#545
1!
1'
b10010 /
b10010 0
b10001 +
b10001 %
#550
0!
0'
#555
1!
1'
b10011 /
b10011 0
b10010 +
b10010 %
#560
0!
0'
#565
1!
1'
b10100 /
b10100 0
b10011 +
b10011 %
#570
0!
0'
#575
1!
1'
b10101 /
b10101 0
b10100 +
b10100 %
#580
0!
0'
#585
1!
1'
b10110 /
b10110 0
b10101 +
b10101 %
#590
0!
0'
#595
1!
1'
b10111 /
b10111 0
b10110 +
b10110 %
#600
0!
0'
#605
1!
1'
b11000 /
b11000 0
b10111 +
b10111 %
#610
0!
0'
#615
1!
1'
b11001 /
b11001 0
b11000 +
b11000 %
#620
0!
0'
#625
1!
1'
b11010 /
b11010 0
b11001 +
b11001 %
#630
0!
0'
#635
1!
1'
b11011 /
b11011 0
b11010 +
b11010 %
#640
0!
0'
#645
1!
1'
b11100 /
b11100 0
b11011 +
b11011 %
#650
0!
0'
#655
1!
1'
b11101 /
b11101 0
b11100 +
b11100 %
#660
0!
0'
#665
1!
1'
b11110 /
b11110 0
b11101 +
b11101 %
#670
0!
0'
#675
1!
1'
b11111 /
b11111 0
b11110 +
b11110 %
#680
0!
0'
#685
1!
1'
b100000 /
b100000 0
b11111 +
b11111 %
#690
0!
0'
#695
1!
1'
b100001 /
b100001 0
b100000 +
b100000 %
#700
0!
0'
#705
1!
1'
b100010 /
b100010 0
b100001 +
b100001 %
#710
0!
0'
#715
1!
1'
b100011 /
b100011 0
b100010 +
b100010 %
#720
0!
0'
#725
1!
1'
b100100 /
b100100 0
b100011 +
b100011 %
#730
0!
0'
#735
1!
1'
b100101 /
b100101 0
b100100 +
b100100 %
#740
0!
0'
#745
1!
1'
b100110 /
b100110 0
b100101 +
b100101 %
#750
0!
0'
#755
1!
1'
b100111 /
b100111 0
b100110 +
b100110 %
#760
0!
0'
#765
1!
1'
b101000 /
b101000 0
b100111 +
b100111 %
#770
0!
0'
#775
1!
1'
b101001 /
b101001 0
b101000 +
b101000 %
#780
0!
0'
#785
1!
1'
b101010 /
b101010 0
b101001 +
b101001 %
#790
0!
0'
#795
1!
1'
b101011 /
b101011 0
b101010 +
b101010 %
#800
0!
0'
#805
1!
1'
b101100 /
b101100 0
b101011 +
b101011 %
#810
0!
0'
#815
1!
1'
b101101 /
b101101 0
b101100 +
b101100 %
#820
0!
0'
#825
1!
1'
b101110 /
b101110 0
b101101 +
b101101 %
#830
0!
0'
#835
1!
1'
b101111 /
b101111 0
b101110 +
b101110 %
#840
0!
0'
#845
1!
1'
b110000 /
b110000 0
b101111 +
b101111 %
#850
0!
0'
#855
1!
1'
b110001 /
b110001 0
b110000 +
b110000 %
#860
0#
0!
0)
0'
b0 .
#865
1!
1'
b0 -
b110010 /
#870
0!
0'
#875
1!
1'
b0 /
