Tarea1-FSM/simulation/modelsim/mantenimiento_fsm.vcd
$date
	Mon Sep 09 16:08:08 2024
$end
$version
	ModelSim Version 2020.1
$end
$timescale
	1ps
$end

$scope module tb_mantenimiento_fsm $end
$var reg 1 ! clk $end
$var reg 1 " reset $end
$var reg 1 # iniciar $end
$var reg 1 $ detener $end
$var reg 8 % estado [7:0] $end
$var reg 8 & num_mantenimientos [7:0] $end
$var reg 1 ' terminado $end

$scope module uut $end
$var wire 1 ( clk $end
$var wire 1 ) reset $end
$var wire 1 * iniciar $end
$var wire 1 + detener $end
$var reg 8 , estado [7:0] $end
$var reg 8 - num_mantenimientos [7:0] $end
$var reg 1 . terminado $end
$var reg 3 / estado_siguiente [2:0] $end
$var reg 3 0 estado_actual [2:0] $end
$var reg 8 1 contador [7:0] $end
$upscope $end
$upscope $end
$enddefinitions $end
#0
$dumpvars
0!
1"
0#
0$
bx %
b0 &
0'
bx ,
b0 -
0.
b0 /
b0 0
b0 1
0(
1)
0*
0+
$end
#5
1!
1(
#10
0"
0!
0)
0(
#15
1!
1(
#20
1#
0!
1*
0(
b1 /
#25
1!
1(
b1 0
b10 /
#30
0#
0!
0*
0(
b1 /
b10 /
#35
1!
1(
b10 0
#40
0!
0(
#45
1!
1(
b1 1
#50
0!
0(
#55
1!
1(
b10 1
#60
0!
0(
#65
1!
1(
b11 1
#70
0!
0(
#75
1!
1(
b100 1
#80
1$
0!
1+
0(
b11 /
#85
1!
1(
b11 0
b101 1
1.
b0 /
1'
#90
0$
0!
0+
0(
b11 /
0.
1.
b0 /
#95
1!
1(
b0 0
b101 -
b101 &
0.
0'
