Tarea1-FSM/simulation/modelsim/msim_transcript
# Reading pref.tcl
# do Tarea1-FSM_run_msim_rtl_verilog.do
# if {[file exists rtl_work]} {
# 	vdel -lib rtl_work -all
# }
# vlib rtl_work
# vmap work rtl_work
# Model Technology ModelSim - Intel FPGA Edition vmap 2020.1 Lib Mapping Utility 2020.02 Feb 28 2020
# vmap work rtl_work 
# Copying D:/Programas/Quartus/modelsim_ase/win32aloem/../modelsim.ini to modelsim.ini
# Modifying modelsim.ini
# 
# vlog -sv -work work +incdir+D:/Github/Tarea1-FSM/Tarea1-FSM {D:/Github/Tarea1-FSM/Tarea1-FSM/mantenimiento_fsm.sv}
# Model Technology ModelSim - Intel FPGA Edition vlog 2020.1 Compiler 2020.02 Feb 28 2020
# Start time: 17:41:47 on Sep 13,2024
# vlog -reportprogress 300 -sv -work work "+incdir+D:/Github/Tarea1-FSM/Tarea1-FSM" D:/Github/Tarea1-FSM/Tarea1-FSM/mantenimiento_fsm.sv 
# -- Compiling module mantenimiento_fsm
# 
# Top level modules:
# 	mantenimiento_fsm
# End time: 17:41:47 on Sep 13,2024, Elapsed time: 0:00:00
# Errors: 0, Warnings: 0
# 
# vlog -sv -work work +incdir+D:/Github/Tarea1-FSM/Tarea1-FSM {D:/Github/Tarea1-FSM/Tarea1-FSM/tb_mantenimiento_fsm.sv}
# Model Technology ModelSim - Intel FPGA Edition vlog 2020.1 Compiler 2020.02 Feb 28 2020
# Start time: 17:41:47 on Sep 13,2024
# vlog -reportprogress 300 -sv -work work "+incdir+D:/Github/Tarea1-FSM/Tarea1-FSM" D:/Github/Tarea1-FSM/Tarea1-FSM/tb_mantenimiento_fsm.sv 
# -- Compiling module tb_mantenimiento_fsm
# 
# Top level modules:
# 	tb_mantenimiento_fsm
# End time: 17:41:47 on Sep 13,2024, Elapsed time: 0:00:00
# Errors: 0, Warnings: 0
# 
# vsim -t 1ps -L altera_ver -L lpm_ver -L sgate_ver -L altera_mf_ver -L altera_lnsim_ver -L cyclonev_ver -L cyclonev_hssi_ver -L cyclonev_pcie_hip_ver -L rtl_work -L work -voptargs="+acc"  tb_mantenimiento_fsm
# vsim -t 1ps -L altera_ver -L lpm_ver -L sgate_ver -L altera_mf_ver -L altera_lnsim_ver -L cyclonev_ver -L cyclonev_hssi_ver -L cyclonev_pcie_hip_ver -L rtl_work -L work -voptargs=""+acc"" tb_mantenimiento_fsm 
# Start time: 17:41:48 on Sep 13,2024
# Loading sv_std.std
# Loading work.tb_mantenimiento_fsm
# Loading work.mantenimiento_fsm
# 
# add wave *
# view structure
# .main_pane.structure.interior.cs.body.struct
# view signals
# .main_pane.objects.interior.cs.body.tree
# run -all
# Time=0 | clk=0 | reset=1 | mantenimiento=0 | estado=xxxxxxxx | num_mantenimientos=00000000 | terminado=0
# Time=5 | clk=1 | reset=1 | mantenimiento=0 | estado=xxxxxxxx | num_mantenimientos=00000000 | terminado=0
# Reset desactivado
# Time=10 | clk=0 | reset=0 | mantenimiento=0 | estado=xxxxxxxx | num_mantenimientos=00000000 | terminado=0
# Time=15 | clk=1 | reset=0 | mantenimiento=0 | estado=xxxxxxxx | num_mantenimientos=00000000 | terminado=0
# Iniciando primer ciclo de mantenimiento
# Time=20 | clk=0 | reset=0 | mantenimiento=1 | estado=xxxxxxxx | num_mantenimientos=00000000 | terminado=0
# Time=25 | clk=1 | reset=0 | mantenimiento=1 | estado=xxxxxxxx | num_mantenimientos=00000000 | terminado=0
# Time=30 | clk=0 | reset=0 | mantenimiento=1 | estado=xxxxxxxx | num_mantenimientos=00000000 | terminado=0
# Time=35 | clk=1 | reset=0 | mantenimiento=1 | estado=xxxxxxxx | num_mantenimientos=00000000 | terminado=0
# Time=40 | clk=0 | reset=0 | mantenimiento=1 | estado=xxxxxxxx | num_mantenimientos=00000000 | terminado=0
# Time=45 | clk=1 | reset=0 | mantenimiento=1 | estado=xxxxxxxx | num_mantenimientos=00000001 | terminado=0
# Time=50 | clk=0 | reset=0 | mantenimiento=1 | estado=xxxxxxxx | num_mantenimientos=00000001 | terminado=0
# Time=55 | clk=1 | reset=0 | mantenimiento=1 | estado=xxxxxxxx | num_mantenimientos=00000010 | terminado=0
# Time=60 | clk=0 | reset=0 | mantenimiento=1 | estado=xxxxxxxx | num_mantenimientos=00000010 | terminado=0
# Time=65 | clk=1 | reset=0 | mantenimiento=1 | estado=xxxxxxxx | num_mantenimientos=00000011 | terminado=0
# Time=70 | clk=0 | reset=0 | mantenimiento=1 | estado=xxxxxxxx | num_mantenimientos=00000011 | terminado=0
# Time=75 | clk=1 | reset=0 | mantenimiento=1 | estado=xxxxxxxx | num_mantenimientos=00000100 | terminado=0
# Time=80 | clk=0 | reset=0 | mantenimiento=1 | estado=xxxxxxxx | num_mantenimientos=00000100 | terminado=0
# Time=85 | clk=1 | reset=0 | mantenimiento=1 | estado=xxxxxxxx | num_mantenimientos=00000101 | terminado=0
# Time=90 | clk=0 | reset=0 | mantenimiento=1 | estado=xxxxxxxx | num_mantenimientos=00000101 | terminado=0
# Time=95 | clk=1 | reset=0 | mantenimiento=1 | estado=xxxxxxxx | num_mantenimientos=00000110 | terminado=0
# Time=100 | clk=0 | reset=0 | mantenimiento=1 | estado=xxxxxxxx | num_mantenimientos=00000110 | terminado=0
# Time=105 | clk=1 | reset=0 | mantenimiento=1 | estado=xxxxxxxx | num_mantenimientos=00000111 | terminado=0
# Time=110 | clk=0 | reset=0 | mantenimiento=1 | estado=xxxxxxxx | num_mantenimientos=00000111 | terminado=0
# Time=115 | clk=1 | reset=0 | mantenimiento=1 | estado=xxxxxxxx | num_mantenimientos=00001000 | terminado=0
# Mantenimiento terminado
# Time=120 | clk=0 | reset=0 | mantenimiento=0 | estado=xxxxxxxx | num_mantenimientos=00001000 | terminado=0
# Time=125 | clk=1 | reset=0 | mantenimiento=0 | estado=xxxxxxxx | num_mantenimientos=00001000 | terminado=0
# Time=130 | clk=0 | reset=0 | mantenimiento=0 | estado=xxxxxxxx | num_mantenimientos=00001000 | terminado=0
# Time=135 | clk=1 | reset=0 | mantenimiento=0 | estado=xxxxxxxx | num_mantenimientos=00001000 | terminado=0
# Time=140 | clk=0 | reset=0 | mantenimiento=0 | estado=xxxxxxxx | num_mantenimientos=00001000 | terminado=0
# Time=145 | clk=1 | reset=0 | mantenimiento=0 | estado=xxxxxxxx | num_mantenimientos=00001000 | terminado=0
# Time=150 | clk=0 | reset=0 | mantenimiento=0 | estado=xxxxxxxx | num_mantenimientos=00001000 | terminado=0
# Time=155 | clk=1 | reset=0 | mantenimiento=0 | estado=xxxxxxxx | num_mantenimientos=00001000 | terminado=0
# Time=160 | clk=0 | reset=0 | mantenimiento=0 | estado=xxxxxxxx | num_mantenimientos=00001000 | terminado=0
# Time=165 | clk=1 | reset=0 | mantenimiento=0 | estado=xxxxxxxx | num_mantenimientos=00001000 | terminado=0
# Time=170 | clk=0 | reset=0 | mantenimiento=0 | estado=xxxxxxxx | num_mantenimientos=00001000 | terminado=0
# Time=175 | clk=1 | reset=0 | mantenimiento=0 | estado=xxxxxxxx | num_mantenimientos=00001000 | terminado=0
# Iniciando segundo ciclo de mantenimiento
# Time=180 | clk=0 | reset=0 | mantenimiento=1 | estado=xxxxxxxx | num_mantenimientos=00001000 | terminado=0
# Time=185 | clk=1 | reset=0 | mantenimiento=1 | estado=xxxxxxxx | num_mantenimientos=00001000 | terminado=0
# Time=190 | clk=0 | reset=0 | mantenimiento=1 | estado=xxxxxxxx | num_mantenimientos=00001000 | terminado=0
# Time=195 | clk=1 | reset=0 | mantenimiento=1 | estado=xxxxxxxx | num_mantenimientos=00001001 | terminado=0
# Time=200 | clk=0 | reset=0 | mantenimiento=1 | estado=xxxxxxxx | num_mantenimientos=00001001 | terminado=0
# Time=205 | clk=1 | reset=0 | mantenimiento=1 | estado=xxxxxxxx | num_mantenimientos=00001010 | terminado=0
# Time=210 | clk=0 | reset=0 | mantenimiento=1 | estado=xxxxxxxx | num_mantenimientos=00001010 | terminado=0
# Time=215 | clk=1 | reset=0 | mantenimiento=1 | estado=xxxxxxxx | num_mantenimientos=00001011 | terminado=0
# Time=220 | clk=0 | reset=0 | mantenimiento=1 | estado=xxxxxxxx | num_mantenimientos=00001011 | terminado=0
# Time=225 | clk=1 | reset=0 | mantenimiento=1 | estado=xxxxxxxx | num_mantenimientos=00001100 | terminado=0
# Time=230 | clk=0 | reset=0 | mantenimiento=1 | estado=xxxxxxxx | num_mantenimientos=00001100 | terminado=0
# Time=235 | clk=1 | reset=0 | mantenimiento=1 | estado=xxxxxxxx | num_mantenimientos=00001101 | terminado=0
# Time=240 | clk=0 | reset=0 | mantenimiento=1 | estado=xxxxxxxx | num_mantenimientos=00001101 | terminado=0
# Time=245 | clk=1 | reset=0 | mantenimiento=1 | estado=xxxxxxxx | num_mantenimientos=00001110 | terminado=0
# Time=250 | clk=0 | reset=0 | mantenimiento=1 | estado=xxxxxxxx | num_mantenimientos=00001110 | terminado=0
# Time=255 | clk=1 | reset=0 | mantenimiento=1 | estado=xxxxxxxx | num_mantenimientos=00001111 | terminado=0
# Time=260 | clk=0 | reset=0 | mantenimiento=1 | estado=xxxxxxxx | num_mantenimientos=00001111 | terminado=0
# Time=265 | clk=1 | reset=0 | mantenimiento=1 | estado=xxxxxxxx | num_mantenimientos=00010000 | terminado=0
# Time=270 | clk=0 | reset=0 | mantenimiento=1 | estado=xxxxxxxx | num_mantenimientos=00010000 | terminado=0
# Time=275 | clk=1 | reset=0 | mantenimiento=1 | estado=xxxxxxxx | num_mantenimientos=00010001 | terminado=0
# Segundo mantenimiento terminado
# Time=280 | clk=0 | reset=0 | mantenimiento=0 | estado=xxxxxxxx | num_mantenimientos=00010001 | terminado=0
# Time=285 | clk=1 | reset=0 | mantenimiento=0 | estado=xxxxxxxx | num_mantenimientos=00010001 | terminado=0
# Time=290 | clk=0 | reset=0 | mantenimiento=0 | estado=xxxxxxxx | num_mantenimientos=00010001 | terminado=0
# Time=295 | clk=1 | reset=0 | mantenimiento=0 | estado=xxxxxxxx | num_mantenimientos=00010001 | terminado=0
# Time=300 | clk=0 | reset=0 | mantenimiento=0 | estado=xxxxxxxx | num_mantenimientos=00010001 | terminado=0
# Time=305 | clk=1 | reset=0 | mantenimiento=0 | estado=xxxxxxxx | num_mantenimientos=00010001 | terminado=0
# Time=310 | clk=0 | reset=0 | mantenimiento=0 | estado=xxxxxxxx | num_mantenimientos=00010001 | terminado=0
# Time=315 | clk=1 | reset=0 | mantenimiento=0 | estado=xxxxxxxx | num_mantenimientos=00010001 | terminado=0
# Time=320 | clk=0 | reset=0 | mantenimiento=0 | estado=xxxxxxxx | num_mantenimientos=00010001 | terminado=0
# Time=325 | clk=1 | reset=0 | mantenimiento=0 | estado=xxxxxxxx | num_mantenimientos=00010001 | terminado=0
# Time=330 | clk=0 | reset=0 | mantenimiento=0 | estado=xxxxxxxx | num_mantenimientos=00010001 | terminado=0
# Time=335 | clk=1 | reset=0 | mantenimiento=0 | estado=xxxxxxxx | num_mantenimientos=00010001 | terminado=0
# Forzando error al exceder los ciclos de mantenimiento
# Time=340 | clk=0 | reset=0 | mantenimiento=1 | estado=xxxxxxxx | num_mantenimientos=00010001 | terminado=0
# Time=345 | clk=1 | reset=0 | mantenimiento=1 | estado=xxxxxxxx | num_mantenimientos=00010001 | terminado=0
# Time=350 | clk=0 | reset=0 | mantenimiento=1 | estado=xxxxxxxx | num_mantenimientos=00010001 | terminado=0
# Time=355 | clk=1 | reset=0 | mantenimiento=1 | estado=xxxxxxxx | num_mantenimientos=00010010 | terminado=0
# Time=360 | clk=0 | reset=0 | mantenimiento=1 | estado=xxxxxxxx | num_mantenimientos=00010010 | terminado=0
# Time=365 | clk=1 | reset=0 | mantenimiento=1 | estado=xxxxxxxx | num_mantenimientos=00010011 | terminado=0
# Time=370 | clk=0 | reset=0 | mantenimiento=1 | estado=xxxxxxxx | num_mantenimientos=00010011 | terminado=0
# Time=375 | clk=1 | reset=0 | mantenimiento=1 | estado=xxxxxxxx | num_mantenimientos=00010100 | terminado=0
# Time=380 | clk=0 | reset=0 | mantenimiento=1 | estado=xxxxxxxx | num_mantenimientos=00010100 | terminado=0
# Time=385 | clk=1 | reset=0 | mantenimiento=1 | estado=xxxxxxxx | num_mantenimientos=00010101 | terminado=0
# Time=390 | clk=0 | reset=0 | mantenimiento=1 | estado=xxxxxxxx | num_mantenimientos=00010101 | terminado=0
# Time=395 | clk=1 | reset=0 | mantenimiento=1 | estado=xxxxxxxx | num_mantenimientos=00010110 | terminado=0
# Time=400 | clk=0 | reset=0 | mantenimiento=1 | estado=xxxxxxxx | num_mantenimientos=00010110 | terminado=0
# Time=405 | clk=1 | reset=0 | mantenimiento=1 | estado=xxxxxxxx | num_mantenimientos=00010111 | terminado=0
# Time=410 | clk=0 | reset=0 | mantenimiento=1 | estado=xxxxxxxx | num_mantenimientos=00010111 | terminado=0
# Time=415 | clk=1 | reset=0 | mantenimiento=1 | estado=xxxxxxxx | num_mantenimientos=00011000 | terminado=0
# Time=420 | clk=0 | reset=0 | mantenimiento=1 | estado=xxxxxxxx | num_mantenimientos=00011000 | terminado=0
# Time=425 | clk=1 | reset=0 | mantenimiento=1 | estado=xxxxxxxx | num_mantenimientos=00011001 | terminado=0
# Time=430 | clk=0 | reset=0 | mantenimiento=1 | estado=xxxxxxxx | num_mantenimientos=00011001 | terminado=0
# Time=435 | clk=1 | reset=0 | mantenimiento=1 | estado=xxxxxxxx | num_mantenimientos=00011010 | terminado=0
# Time=440 | clk=0 | reset=0 | mantenimiento=1 | estado=xxxxxxxx | num_mantenimientos=00011010 | terminado=0
# Time=445 | clk=1 | reset=0 | mantenimiento=1 | estado=xxxxxxxx | num_mantenimientos=00011011 | terminado=0
# Time=450 | clk=0 | reset=0 | mantenimiento=1 | estado=xxxxxxxx | num_mantenimientos=00011011 | terminado=0
# Time=455 | clk=1 | reset=0 | mantenimiento=1 | estado=xxxxxxxx | num_mantenimientos=00011100 | terminado=0
# Time=460 | clk=0 | reset=0 | mantenimiento=1 | estado=xxxxxxxx | num_mantenimientos=00011100 | terminado=0
# Time=465 | clk=1 | reset=0 | mantenimiento=1 | estado=xxxxxxxx | num_mantenimientos=00011101 | terminado=0
# Time=470 | clk=0 | reset=0 | mantenimiento=1 | estado=xxxxxxxx | num_mantenimientos=00011101 | terminado=0
# Time=475 | clk=1 | reset=0 | mantenimiento=1 | estado=xxxxxxxx | num_mantenimientos=00011110 | terminado=0
# Time=480 | clk=0 | reset=0 | mantenimiento=1 | estado=xxxxxxxx | num_mantenimientos=00011110 | terminado=0
# Time=485 | clk=1 | reset=0 | mantenimiento=1 | estado=xxxxxxxx | num_mantenimientos=00011111 | terminado=0
# Time=490 | clk=0 | reset=0 | mantenimiento=1 | estado=xxxxxxxx | num_mantenimientos=00011111 | terminado=0
# Time=495 | clk=1 | reset=0 | mantenimiento=1 | estado=xxxxxxxx | num_mantenimientos=00100000 | terminado=0
# Time=500 | clk=0 | reset=0 | mantenimiento=1 | estado=xxxxxxxx | num_mantenimientos=00100000 | terminado=0
# Time=505 | clk=1 | reset=0 | mantenimiento=1 | estado=xxxxxxxx | num_mantenimientos=00100001 | terminado=0
# Time=510 | clk=0 | reset=0 | mantenimiento=1 | estado=xxxxxxxx | num_mantenimientos=00100001 | terminado=0
# Time=515 | clk=1 | reset=0 | mantenimiento=1 | estado=xxxxxxxx | num_mantenimientos=00100010 | terminado=0
# Time=520 | clk=0 | reset=0 | mantenimiento=1 | estado=xxxxxxxx | num_mantenimientos=00100010 | terminado=0
# Time=525 | clk=1 | reset=0 | mantenimiento=1 | estado=xxxxxxxx | num_mantenimientos=00100011 | terminado=0
# Time=530 | clk=0 | reset=0 | mantenimiento=1 | estado=xxxxxxxx | num_mantenimientos=00100011 | terminado=0
# Time=535 | clk=1 | reset=0 | mantenimiento=1 | estado=xxxxxxxx | num_mantenimientos=00100100 | terminado=0
# Time=540 | clk=0 | reset=0 | mantenimiento=1 | estado=xxxxxxxx | num_mantenimientos=00100100 | terminado=0
# Time=545 | clk=1 | reset=0 | mantenimiento=1 | estado=xxxxxxxx | num_mantenimientos=00100101 | terminado=0
# Time=550 | clk=0 | reset=0 | mantenimiento=1 | estado=xxxxxxxx | num_mantenimientos=00100101 | terminado=0
# Time=555 | clk=1 | reset=0 | mantenimiento=1 | estado=xxxxxxxx | num_mantenimientos=00100110 | terminado=0
# Time=560 | clk=0 | reset=0 | mantenimiento=1 | estado=xxxxxxxx | num_mantenimientos=00100110 | terminado=0
# Time=565 | clk=1 | reset=0 | mantenimiento=1 | estado=xxxxxxxx | num_mantenimientos=00100111 | terminado=0
# Time=570 | clk=0 | reset=0 | mantenimiento=1 | estado=xxxxxxxx | num_mantenimientos=00100111 | terminado=0
# Time=575 | clk=1 | reset=0 | mantenimiento=1 | estado=xxxxxxxx | num_mantenimientos=00101000 | terminado=0
# Time=580 | clk=0 | reset=0 | mantenimiento=1 | estado=xxxxxxxx | num_mantenimientos=00101000 | terminado=0
# Time=585 | clk=1 | reset=0 | mantenimiento=1 | estado=xxxxxxxx | num_mantenimientos=00101001 | terminado=0
# Time=590 | clk=0 | reset=0 | mantenimiento=1 | estado=xxxxxxxx | num_mantenimientos=00101001 | terminado=0
# Time=595 | clk=1 | reset=0 | mantenimiento=1 | estado=xxxxxxxx | num_mantenimientos=00101010 | terminado=0
# Time=600 | clk=0 | reset=0 | mantenimiento=1 | estado=xxxxxxxx | num_mantenimientos=00101010 | terminado=0
# Time=605 | clk=1 | reset=0 | mantenimiento=1 | estado=xxxxxxxx | num_mantenimientos=00101011 | terminado=0
# Time=610 | clk=0 | reset=0 | mantenimiento=1 | estado=xxxxxxxx | num_mantenimientos=00101011 | terminado=0
# Time=615 | clk=1 | reset=0 | mantenimiento=1 | estado=xxxxxxxx | num_mantenimientos=00101100 | terminado=0
# Time=620 | clk=0 | reset=0 | mantenimiento=1 | estado=xxxxxxxx | num_mantenimientos=00101100 | terminado=0
# Time=625 | clk=1 | reset=0 | mantenimiento=1 | estado=xxxxxxxx | num_mantenimientos=00101101 | terminado=0
# Time=630 | clk=0 | reset=0 | mantenimiento=1 | estado=xxxxxxxx | num_mantenimientos=00101101 | terminado=0
# Time=635 | clk=1 | reset=0 | mantenimiento=1 | estado=xxxxxxxx | num_mantenimientos=00101110 | terminado=0
# Time=640 | clk=0 | reset=0 | mantenimiento=1 | estado=xxxxxxxx | num_mantenimientos=00101110 | terminado=0
# Time=645 | clk=1 | reset=0 | mantenimiento=1 | estado=xxxxxxxx | num_mantenimientos=00101111 | terminado=0
# Time=650 | clk=0 | reset=0 | mantenimiento=1 | estado=xxxxxxxx | num_mantenimientos=00101111 | terminado=0
# Time=655 | clk=1 | reset=0 | mantenimiento=1 | estado=xxxxxxxx | num_mantenimientos=00110000 | terminado=0
# Time=660 | clk=0 | reset=0 | mantenimiento=1 | estado=xxxxxxxx | num_mantenimientos=00110000 | terminado=0
# Time=665 | clk=1 | reset=0 | mantenimiento=1 | estado=xxxxxxxx | num_mantenimientos=00110001 | terminado=0
# Time=670 | clk=0 | reset=0 | mantenimiento=1 | estado=xxxxxxxx | num_mantenimientos=00110001 | terminado=0
# Time=675 | clk=1 | reset=0 | mantenimiento=1 | estado=xxxxxxxx | num_mantenimientos=00110010 | terminado=0
# Time=680 | clk=0 | reset=0 | mantenimiento=1 | estado=xxxxxxxx | num_mantenimientos=00110010 | terminado=0
# Time=685 | clk=1 | reset=0 | mantenimiento=1 | estado=xxxxxxxx | num_mantenimientos=00110011 | terminado=0
# Time=690 | clk=0 | reset=0 | mantenimiento=1 | estado=xxxxxxxx | num_mantenimientos=00110011 | terminado=0
# Time=695 | clk=1 | reset=0 | mantenimiento=1 | estado=xxxxxxxx | num_mantenimientos=00110100 | terminado=0
# Time=700 | clk=0 | reset=0 | mantenimiento=1 | estado=xxxxxxxx | num_mantenimientos=00110100 | terminado=0
# Time=705 | clk=1 | reset=0 | mantenimiento=1 | estado=xxxxxxxx | num_mantenimientos=00110101 | terminado=0
# Time=710 | clk=0 | reset=0 | mantenimiento=1 | estado=xxxxxxxx | num_mantenimientos=00110101 | terminado=0
# Time=715 | clk=1 | reset=0 | mantenimiento=1 | estado=xxxxxxxx | num_mantenimientos=00110110 | terminado=0
# Time=720 | clk=0 | reset=0 | mantenimiento=1 | estado=xxxxxxxx | num_mantenimientos=00110110 | terminado=0
# Time=725 | clk=1 | reset=0 | mantenimiento=1 | estado=xxxxxxxx | num_mantenimientos=00110111 | terminado=0
# Time=730 | clk=0 | reset=0 | mantenimiento=1 | estado=xxxxxxxx | num_mantenimientos=00110111 | terminado=0
# Time=735 | clk=1 | reset=0 | mantenimiento=1 | estado=xxxxxxxx | num_mantenimientos=00111000 | terminado=0
# Time=740 | clk=0 | reset=0 | mantenimiento=1 | estado=xxxxxxxx | num_mantenimientos=00111000 | terminado=0
# Time=745 | clk=1 | reset=0 | mantenimiento=1 | estado=xxxxxxxx | num_mantenimientos=00111001 | terminado=0
# Time=750 | clk=0 | reset=0 | mantenimiento=1 | estado=xxxxxxxx | num_mantenimientos=00111001 | terminado=0
# Time=755 | clk=1 | reset=0 | mantenimiento=1 | estado=xxxxxxxx | num_mantenimientos=00111010 | terminado=0
# Time=760 | clk=0 | reset=0 | mantenimiento=1 | estado=xxxxxxxx | num_mantenimientos=00111010 | terminado=0
# Time=765 | clk=1 | reset=0 | mantenimiento=1 | estado=xxxxxxxx | num_mantenimientos=00111011 | terminado=0
# Time=770 | clk=0 | reset=0 | mantenimiento=1 | estado=xxxxxxxx | num_mantenimientos=00111011 | terminado=0
# Time=775 | clk=1 | reset=0 | mantenimiento=1 | estado=xxxxxxxx | num_mantenimientos=00111100 | terminado=0
# Time=780 | clk=0 | reset=0 | mantenimiento=1 | estado=xxxxxxxx | num_mantenimientos=00111100 | terminado=0
# Time=785 | clk=1 | reset=0 | mantenimiento=1 | estado=xxxxxxxx | num_mantenimientos=00111101 | terminado=0
# Time=790 | clk=0 | reset=0 | mantenimiento=1 | estado=xxxxxxxx | num_mantenimientos=00111101 | terminado=0
# Time=795 | clk=1 | reset=0 | mantenimiento=1 | estado=xxxxxxxx | num_mantenimientos=00111110 | terminado=0
# Time=800 | clk=0 | reset=0 | mantenimiento=1 | estado=xxxxxxxx | num_mantenimientos=00111110 | terminado=0
# Time=805 | clk=1 | reset=0 | mantenimiento=1 | estado=xxxxxxxx | num_mantenimientos=00111111 | terminado=0
# Time=810 | clk=0 | reset=0 | mantenimiento=1 | estado=xxxxxxxx | num_mantenimientos=00111111 | terminado=0
# Time=815 | clk=1 | reset=0 | mantenimiento=1 | estado=xxxxxxxx | num_mantenimientos=01000000 | terminado=0
# Time=820 | clk=0 | reset=0 | mantenimiento=1 | estado=xxxxxxxx | num_mantenimientos=01000000 | terminado=0
# Time=825 | clk=1 | reset=0 | mantenimiento=1 | estado=xxxxxxxx | num_mantenimientos=01000001 | terminado=0
# Time=830 | clk=0 | reset=0 | mantenimiento=1 | estado=xxxxxxxx | num_mantenimientos=01000001 | terminado=0
# Time=835 | clk=1 | reset=0 | mantenimiento=1 | estado=xxxxxxxx | num_mantenimientos=01000010 | terminado=0
# Error forzado, estado de ERROR alcanzado
# Time=840 | clk=0 | reset=0 | mantenimiento=0 | estado=xxxxxxxx | num_mantenimientos=01000010 | terminado=0
# Time=845 | clk=1 | reset=0 | mantenimiento=0 | estado=xxxxxxxx | num_mantenimientos=01000010 | terminado=0
# Time=850 | clk=0 | reset=0 | mantenimiento=0 | estado=xxxxxxxx | num_mantenimientos=01000010 | terminado=0
# Time=855 | clk=1 | reset=0 | mantenimiento=0 | estado=xxxxxxxx | num_mantenimientos=01000010 | terminado=0
# Time=860 | clk=0 | reset=0 | mantenimiento=0 | estado=xxxxxxxx | num_mantenimientos=01000010 | terminado=0
# Time=865 | clk=1 | reset=0 | mantenimiento=0 | estado=xxxxxxxx | num_mantenimientos=01000010 | terminado=0
# Time=870 | clk=0 | reset=0 | mantenimiento=0 | estado=xxxxxxxx | num_mantenimientos=01000010 | terminado=0
# Time=875 | clk=1 | reset=0 | mantenimiento=0 | estado=xxxxxxxx | num_mantenimientos=01000010 | terminado=0
# Time=880 | clk=0 | reset=0 | mantenimiento=0 | estado=xxxxxxxx | num_mantenimientos=01000010 | terminado=0
# Time=885 | clk=1 | reset=0 | mantenimiento=0 | estado=xxxxxxxx | num_mantenimientos=01000010 | terminado=0
# Time=890 | clk=0 | reset=0 | mantenimiento=0 | estado=xxxxxxxx | num_mantenimientos=01000010 | terminado=0
# Time=895 | clk=1 | reset=0 | mantenimiento=0 | estado=xxxxxxxx | num_mantenimientos=01000010 | terminado=0
# Time=900 | clk=0 | reset=0 | mantenimiento=0 | estado=xxxxxxxx | num_mantenimientos=01000010 | terminado=0
# Time=905 | clk=1 | reset=0 | mantenimiento=0 | estado=xxxxxxxx | num_mantenimientos=01000010 | terminado=0
# Time=910 | clk=0 | reset=0 | mantenimiento=0 | estado=xxxxxxxx | num_mantenimientos=01000010 | terminado=0
# Time=915 | clk=1 | reset=0 | mantenimiento=0 | estado=xxxxxxxx | num_mantenimientos=01000010 | terminado=0
# Time=920 | clk=0 | reset=0 | mantenimiento=0 | estado=xxxxxxxx | num_mantenimientos=01000010 | terminado=0
# Time=925 | clk=1 | reset=0 | mantenimiento=0 | estado=xxxxxxxx | num_mantenimientos=01000010 | terminado=0
# Time=930 | clk=0 | reset=0 | mantenimiento=0 | estado=xxxxxxxx | num_mantenimientos=01000010 | terminado=0
# Time=935 | clk=1 | reset=0 | mantenimiento=0 | estado=xxxxxxxx | num_mantenimientos=01000010 | terminado=0
# ** Note: $finish    : D:/Github/Tarea1-FSM/Tarea1-FSM/tb_mantenimiento_fsm.sv(66)
#    Time: 940 ps  Iteration: 0  Instance: /tb_mantenimiento_fsm
# 1
# Break in Module tb_mantenimiento_fsm at D:/Github/Tarea1-FSM/Tarea1-FSM/tb_mantenimiento_fsm.sv line 66
# End time: 17:42:16 on Sep 13,2024, Elapsed time: 0:00:28
# Errors: 0, Warnings: 0
